{
  "type": "object",
  "required" : [
    "id",
    "environment_scope",
    "active"
  ],
  "properties" : {
    "id": { "type": "integer" },
    "environment_scope": { "type": "string" },
    "active": { "type": "boolean" },
    "created_at": { "type": "date" },
    "updated_at": { "type": "date" }
  },
  "additionalProperties": false
}
